[
  {
    "identifiant": 1,
    "elemPatri": "sdicu",
    "elemPrinci" : "yfegv dzhbqjedyfvqseuy EYSFG CUfedsw"
  },
  {
    "identifiant": 2,
    "elemPatri": "sdicu",
    "elemPrinci" : "yfegv dzhbqjedyfvqseuy EYSFG CUfedsw"
  }
]